// Jest Snapshot v1, https://goo.gl/fbAQLP

exports[`Paginator renders successfully 1`] = `
ShallowWrapper {
  "length": 1,
  Symbol(enzyme.__root__): [Circular],
  Symbol(enzyme.__unrendered__): <Unknown
    currentPage={1}
    maxPage={3}
/>,
  Symbol(enzyme.__renderer__): Object {
    "batchedUpdates": [Function],
    "getNode": [Function],
    "render": [Function],
    "simulateEvent": [Function],
    "unmount": [Function],
  },
  Symbol(enzyme.__node__): Object {
    "instance": null,
    "key": undefined,
    "nodeType": "host",
    "props": Object {
      "children": Array [
        <nav
          aria-label="Page navigation"
>
          <ul
                    className="pagination"
          >
                    <li
                              className="page-item"
                    >
                              <Link
                                        aria-label="First"
                                        className="page-link"
                                        replace={false}
                                        to="/1"
                              >
                                        <span
                                                  aria-hidden="true"
                                        >
                                                  «
                                        </span>
                                        <span
                                                  className="sr-only"
                                        >
                                                  First
                                        </span>
                              </Link>
                    </li>
                    <li
                              className="page-item active"
                    >
                              <Link
                                        className="page-link"
                                        replace={false}
                                        to="/1"
                              >
                                        1
                              </Link>
                    </li>
                    <li
                              className="page-item"
                    >
                              <Link
                                        className="page-link"
                                        replace={false}
                                        to="/2"
                              >
                                        2
                              </Link>
                    </li>
                    <li
                              className="page-item"
                    >
                              <Link
                                        aria-label="Last"
                                        className="page-link"
                                        replace={false}
                                        to="/3"
                              >
                                        <span
                                                  aria-hidden="true"
                                        >
                                                  »
                                        </span>
                                        <span
                                                  className="sr-only"
                                        >
                                                  Last
                                        </span>
                              </Link>
                    </li>
          </ul>
</nav>,
        <Connect(Filter) />,
      ],
      "className": "paginator-holder",
    },
    "ref": null,
    "rendered": Array [
      Object {
        "instance": null,
        "key": undefined,
        "nodeType": "host",
        "props": Object {
          "aria-label": "Page navigation",
          "children": <ul
            className="pagination"
>
            <li
                        className="page-item"
            >
                        <Link
                                    aria-label="First"
                                    className="page-link"
                                    replace={false}
                                    to="/1"
                        >
                                    <span
                                                aria-hidden="true"
                                    >
                                                «
                                    </span>
                                    <span
                                                className="sr-only"
                                    >
                                                First
                                    </span>
                        </Link>
            </li>
            <li
                        className="page-item active"
            >
                        <Link
                                    className="page-link"
                                    replace={false}
                                    to="/1"
                        >
                                    1
                        </Link>
            </li>
            <li
                        className="page-item"
            >
                        <Link
                                    className="page-link"
                                    replace={false}
                                    to="/2"
                        >
                                    2
                        </Link>
            </li>
            <li
                        className="page-item"
            >
                        <Link
                                    aria-label="Last"
                                    className="page-link"
                                    replace={false}
                                    to="/3"
                        >
                                    <span
                                                aria-hidden="true"
                                    >
                                                »
                                    </span>
                                    <span
                                                className="sr-only"
                                    >
                                                Last
                                    </span>
                        </Link>
            </li>
</ul>,
        },
        "ref": null,
        "rendered": Object {
          "instance": null,
          "key": undefined,
          "nodeType": "host",
          "props": Object {
            "children": Array [
              <li
                className="page-item"
>
                <Link
                                aria-label="First"
                                className="page-link"
                                replace={false}
                                to="/1"
                >
                                <span
                                                aria-hidden="true"
                                >
                                                «
                                </span>
                                <span
                                                className="sr-only"
                                >
                                                First
                                </span>
                </Link>
</li>,
              Array [
                <li
                  className="page-item active"
>
                  <Link
                                    className="page-link"
                                    replace={false}
                                    to="/1"
                  >
                                    1
                  </Link>
</li>,
                <li
                  className="page-item"
>
                  <Link
                                    className="page-link"
                                    replace={false}
                                    to="/2"
                  >
                                    2
                  </Link>
</li>,
              ],
              <li
                className="page-item"
>
                <Link
                                aria-label="Last"
                                className="page-link"
                                replace={false}
                                to="/3"
                >
                                <span
                                                aria-hidden="true"
                                >
                                                »
                                </span>
                                <span
                                                className="sr-only"
                                >
                                                Last
                                </span>
                </Link>
</li>,
            ],
            "className": "pagination",
          },
          "ref": null,
          "rendered": Array [
            Object {
              "instance": null,
              "key": undefined,
              "nodeType": "host",
              "props": Object {
                "children": <Link
                  aria-label="First"
                  className="page-link"
                  replace={false}
                  to="/1"
>
                  <span
                                    aria-hidden="true"
                  >
                                    «
                  </span>
                  <span
                                    className="sr-only"
                  >
                                    First
                  </span>
</Link>,
                "className": "page-item",
              },
              "ref": null,
              "rendered": Object {
                "instance": null,
                "key": undefined,
                "nodeType": "class",
                "props": Object {
                  "aria-label": "First",
                  "children": Array [
                    <span
                      aria-hidden="true"
>
                      «
</span>,
                    <span
                      className="sr-only"
>
                      First
</span>,
                  ],
                  "className": "page-link",
                  "replace": false,
                  "to": "/1",
                },
                "ref": null,
                "rendered": Array [
                  Object {
                    "instance": null,
                    "key": undefined,
                    "nodeType": "host",
                    "props": Object {
                      "aria-hidden": "true",
                      "children": "«",
                    },
                    "ref": null,
                    "rendered": "«",
                    "type": "span",
                  },
                  Object {
                    "instance": null,
                    "key": undefined,
                    "nodeType": "host",
                    "props": Object {
                      "children": "First",
                      "className": "sr-only",
                    },
                    "ref": null,
                    "rendered": "First",
                    "type": "span",
                  },
                ],
                "type": [Function],
              },
              "type": "li",
            },
            Object {
              "instance": null,
              "key": "1",
              "nodeType": "host",
              "props": Object {
                "children": <Link
                  className="page-link"
                  replace={false}
                  to="/1"
>
                  1
</Link>,
                "className": "page-item active",
              },
              "ref": null,
              "rendered": Object {
                "instance": null,
                "key": undefined,
                "nodeType": "class",
                "props": Object {
                  "children": 1,
                  "className": "page-link",
                  "replace": false,
                  "to": "/1",
                },
                "ref": null,
                "rendered": 1,
                "type": [Function],
              },
              "type": "li",
            },
            Object {
              "instance": null,
              "key": "2",
              "nodeType": "host",
              "props": Object {
                "children": <Link
                  className="page-link"
                  replace={false}
                  to="/2"
>
                  2
</Link>,
                "className": "page-item",
              },
              "ref": null,
              "rendered": Object {
                "instance": null,
                "key": undefined,
                "nodeType": "class",
                "props": Object {
                  "children": 2,
                  "className": "page-link",
                  "replace": false,
                  "to": "/2",
                },
                "ref": null,
                "rendered": 2,
                "type": [Function],
              },
              "type": "li",
            },
            Object {
              "instance": null,
              "key": undefined,
              "nodeType": "host",
              "props": Object {
                "children": <Link
                  aria-label="Last"
                  className="page-link"
                  replace={false}
                  to="/3"
>
                  <span
                                    aria-hidden="true"
                  >
                                    »
                  </span>
                  <span
                                    className="sr-only"
                  >
                                    Last
                  </span>
</Link>,
                "className": "page-item",
              },
              "ref": null,
              "rendered": Object {
                "instance": null,
                "key": undefined,
                "nodeType": "class",
                "props": Object {
                  "aria-label": "Last",
                  "children": Array [
                    <span
                      aria-hidden="true"
>
                      »
</span>,
                    <span
                      className="sr-only"
>
                      Last
</span>,
                  ],
                  "className": "page-link",
                  "replace": false,
                  "to": "/3",
                },
                "ref": null,
                "rendered": Array [
                  Object {
                    "instance": null,
                    "key": undefined,
                    "nodeType": "host",
                    "props": Object {
                      "aria-hidden": "true",
                      "children": "»",
                    },
                    "ref": null,
                    "rendered": "»",
                    "type": "span",
                  },
                  Object {
                    "instance": null,
                    "key": undefined,
                    "nodeType": "host",
                    "props": Object {
                      "children": "Last",
                      "className": "sr-only",
                    },
                    "ref": null,
                    "rendered": "Last",
                    "type": "span",
                  },
                ],
                "type": [Function],
              },
              "type": "li",
            },
          ],
          "type": "ul",
        },
        "type": "nav",
      },
      Object {
        "instance": null,
        "key": undefined,
        "nodeType": "class",
        "props": Object {},
        "ref": null,
        "rendered": null,
        "type": [Function],
      },
    ],
    "type": "div",
  },
  Symbol(enzyme.__nodes__): Array [
    Object {
      "instance": null,
      "key": undefined,
      "nodeType": "host",
      "props": Object {
        "children": Array [
          <nav
            aria-label="Page navigation"
>
            <ul
                        className="pagination"
            >
                        <li
                                    className="page-item"
                        >
                                    <Link
                                                aria-label="First"
                                                className="page-link"
                                                replace={false}
                                                to="/1"
                                    >
                                                <span
                                                            aria-hidden="true"
                                                >
                                                            «
                                                </span>
                                                <span
                                                            className="sr-only"
                                                >
                                                            First
                                                </span>
                                    </Link>
                        </li>
                        <li
                                    className="page-item active"
                        >
                                    <Link
                                                className="page-link"
                                                replace={false}
                                                to="/1"
                                    >
                                                1
                                    </Link>
                        </li>
                        <li
                                    className="page-item"
                        >
                                    <Link
                                                className="page-link"
                                                replace={false}
                                                to="/2"
                                    >
                                                2
                                    </Link>
                        </li>
                        <li
                                    className="page-item"
                        >
                                    <Link
                                                aria-label="Last"
                                                className="page-link"
                                                replace={false}
                                                to="/3"
                                    >
                                                <span
                                                            aria-hidden="true"
                                                >
                                                            »
                                                </span>
                                                <span
                                                            className="sr-only"
                                                >
                                                            Last
                                                </span>
                                    </Link>
                        </li>
            </ul>
</nav>,
          <Connect(Filter) />,
        ],
        "className": "paginator-holder",
      },
      "ref": null,
      "rendered": Array [
        Object {
          "instance": null,
          "key": undefined,
          "nodeType": "host",
          "props": Object {
            "aria-label": "Page navigation",
            "children": <ul
              className="pagination"
>
              <li
                            className="page-item"
              >
                            <Link
                                          aria-label="First"
                                          className="page-link"
                                          replace={false}
                                          to="/1"
                            >
                                          <span
                                                        aria-hidden="true"
                                          >
                                                        «
                                          </span>
                                          <span
                                                        className="sr-only"
                                          >
                                                        First
                                          </span>
                            </Link>
              </li>
              <li
                            className="page-item active"
              >
                            <Link
                                          className="page-link"
                                          replace={false}
                                          to="/1"
                            >
                                          1
                            </Link>
              </li>
              <li
                            className="page-item"
              >
                            <Link
                                          className="page-link"
                                          replace={false}
                                          to="/2"
                            >
                                          2
                            </Link>
              </li>
              <li
                            className="page-item"
              >
                            <Link
                                          aria-label="Last"
                                          className="page-link"
                                          replace={false}
                                          to="/3"
                            >
                                          <span
                                                        aria-hidden="true"
                                          >
                                                        »
                                          </span>
                                          <span
                                                        className="sr-only"
                                          >
                                                        Last
                                          </span>
                            </Link>
              </li>
</ul>,
          },
          "ref": null,
          "rendered": Object {
            "instance": null,
            "key": undefined,
            "nodeType": "host",
            "props": Object {
              "children": Array [
                <li
                  className="page-item"
>
                  <Link
                                    aria-label="First"
                                    className="page-link"
                                    replace={false}
                                    to="/1"
                  >
                                    <span
                                                      aria-hidden="true"
                                    >
                                                      «
                                    </span>
                                    <span
                                                      className="sr-only"
                                    >
                                                      First
                                    </span>
                  </Link>
</li>,
                Array [
                  <li
                    className="page-item active"
>
                    <Link
                                        className="page-link"
                                        replace={false}
                                        to="/1"
                    >
                                        1
                    </Link>
</li>,
                  <li
                    className="page-item"
>
                    <Link
                                        className="page-link"
                                        replace={false}
                                        to="/2"
                    >
                                        2
                    </Link>
</li>,
                ],
                <li
                  className="page-item"
>
                  <Link
                                    aria-label="Last"
                                    className="page-link"
                                    replace={false}
                                    to="/3"
                  >
                                    <span
                                                      aria-hidden="true"
                                    >
                                                      »
                                    </span>
                                    <span
                                                      className="sr-only"
                                    >
                                                      Last
                                    </span>
                  </Link>
</li>,
              ],
              "className": "pagination",
            },
            "ref": null,
            "rendered": Array [
              Object {
                "instance": null,
                "key": undefined,
                "nodeType": "host",
                "props": Object {
                  "children": <Link
                    aria-label="First"
                    className="page-link"
                    replace={false}
                    to="/1"
>
                    <span
                                        aria-hidden="true"
                    >
                                        «
                    </span>
                    <span
                                        className="sr-only"
                    >
                                        First
                    </span>
</Link>,
                  "className": "page-item",
                },
                "ref": null,
                "rendered": Object {
                  "instance": null,
                  "key": undefined,
                  "nodeType": "class",
                  "props": Object {
                    "aria-label": "First",
                    "children": Array [
                      <span
                        aria-hidden="true"
>
                        «
</span>,
                      <span
                        className="sr-only"
>
                        First
</span>,
                    ],
                    "className": "page-link",
                    "replace": false,
                    "to": "/1",
                  },
                  "ref": null,
                  "rendered": Array [
                    Object {
                      "instance": null,
                      "key": undefined,
                      "nodeType": "host",
                      "props": Object {
                        "aria-hidden": "true",
                        "children": "«",
                      },
                      "ref": null,
                      "rendered": "«",
                      "type": "span",
                    },
                    Object {
                      "instance": null,
                      "key": undefined,
                      "nodeType": "host",
                      "props": Object {
                        "children": "First",
                        "className": "sr-only",
                      },
                      "ref": null,
                      "rendered": "First",
                      "type": "span",
                    },
                  ],
                  "type": [Function],
                },
                "type": "li",
              },
              Object {
                "instance": null,
                "key": "1",
                "nodeType": "host",
                "props": Object {
                  "children": <Link
                    className="page-link"
                    replace={false}
                    to="/1"
>
                    1
</Link>,
                  "className": "page-item active",
                },
                "ref": null,
                "rendered": Object {
                  "instance": null,
                  "key": undefined,
                  "nodeType": "class",
                  "props": Object {
                    "children": 1,
                    "className": "page-link",
                    "replace": false,
                    "to": "/1",
                  },
                  "ref": null,
                  "rendered": 1,
                  "type": [Function],
                },
                "type": "li",
              },
              Object {
                "instance": null,
                "key": "2",
                "nodeType": "host",
                "props": Object {
                  "children": <Link
                    className="page-link"
                    replace={false}
                    to="/2"
>
                    2
</Link>,
                  "className": "page-item",
                },
                "ref": null,
                "rendered": Object {
                  "instance": null,
                  "key": undefined,
                  "nodeType": "class",
                  "props": Object {
                    "children": 2,
                    "className": "page-link",
                    "replace": false,
                    "to": "/2",
                  },
                  "ref": null,
                  "rendered": 2,
                  "type": [Function],
                },
                "type": "li",
              },
              Object {
                "instance": null,
                "key": undefined,
                "nodeType": "host",
                "props": Object {
                  "children": <Link
                    aria-label="Last"
                    className="page-link"
                    replace={false}
                    to="/3"
>
                    <span
                                        aria-hidden="true"
                    >
                                        »
                    </span>
                    <span
                                        className="sr-only"
                    >
                                        Last
                    </span>
</Link>,
                  "className": "page-item",
                },
                "ref": null,
                "rendered": Object {
                  "instance": null,
                  "key": undefined,
                  "nodeType": "class",
                  "props": Object {
                    "aria-label": "Last",
                    "children": Array [
                      <span
                        aria-hidden="true"
>
                        »
</span>,
                      <span
                        className="sr-only"
>
                        Last
</span>,
                    ],
                    "className": "page-link",
                    "replace": false,
                    "to": "/3",
                  },
                  "ref": null,
                  "rendered": Array [
                    Object {
                      "instance": null,
                      "key": undefined,
                      "nodeType": "host",
                      "props": Object {
                        "aria-hidden": "true",
                        "children": "»",
                      },
                      "ref": null,
                      "rendered": "»",
                      "type": "span",
                    },
                    Object {
                      "instance": null,
                      "key": undefined,
                      "nodeType": "host",
                      "props": Object {
                        "children": "Last",
                        "className": "sr-only",
                      },
                      "ref": null,
                      "rendered": "Last",
                      "type": "span",
                    },
                  ],
                  "type": [Function],
                },
                "type": "li",
              },
            ],
            "type": "ul",
          },
          "type": "nav",
        },
        Object {
          "instance": null,
          "key": undefined,
          "nodeType": "class",
          "props": Object {},
          "ref": null,
          "rendered": null,
          "type": [Function],
        },
      ],
      "type": "div",
    },
  ],
  Symbol(enzyme.__options__): Object {
    "adapter": ReactSixteenAdapter {
      "options": Object {
        "enableComponentDidUpdateOnSetState": true,
      },
    },
  },
}
`;
